Matlab Signal Processing/tek0004ALL.csv

Model,MDO3024
Firmware Version,1.10

Waveform Type,ANALOG,,
Point Format,Y,,
Horizontal Units,s,,
Horizontal Scale,4,,
Horizontal Delay,0,,
Sample Interval,0.0004,,
Record Length,100000,,
Gating,0.0% to 100.0%,,
Probe Attenuation,10,1,1
Vertical Units,V,V,V
Vertical Offset,0,0,0
Vertical Scale,1,0.5,0.5
Vertical Position,0.96,-1,-1.96
,,,
,,,
,,,
Label,,,
TIME,CH1,CH3,CH4
-2.000000e+01,0.04,0.04,-0.28
-1.999960e+01,1.96,0.04,-0.32
-1.999920e+01,0.04,0.06,-0.24
-1.999880e+01,0.04,-0.14,0.12
-1.999840e+01,0,0.1,-0.26
-1.999800e+01,2.04,-0.1,0.3
-1.999760e+01,0.04,0.04,-0.32
-1.999720e+01,2,-0.02,-0.26
-1.999680e+01,2,-0.08,0.28
-1.999640e+01,2,0.08,0.38
-1.999600e+01,0.16,0.02,0.24
-1.999560e+01,0.04,0.14,0.36
-1.999520e+01,0.04,-0.14,-0.26
-1.999480e+01,0.04,-0.04,0.38
-1.999440e+01,1.96,0.06,-0.22
-1.999400e+01,0.08,0.04,0.38
-1.999360e+01,0.04,0.02,-0.24
-1.999320e+01,0,-0.06,0.28
-1.999280e+01,0,0.02,0.26
-1.999240e+01,0.08,-0.04,0.24
-1.999200e+01,2,0.04,0.22
-1.999160e+01,0.04,-0.14,-0.02
-1.999120e+01,2,0.14,-0.12
-1.999080e+01,0.44,0.06,-0.16
-1.999040e+01,2,-0.16,0.04
-1.999000e+01,0.04,-0.04,-0.38
-1.998960e+01,0,-0.04,0.44
-1.998920e+01,0.12,0.12,0.18
-1.998880e+01,0.08,-0.06,0.36
-1.998840e+01,0.04,-0.16,0.1
-1.998800e+01,0.04,0.1,0.14
-1.998760e+01,2,0.04,0.14
-1.998720e+01,2,0.02,-0.34
-1.998680e+01,2,0.04,-0.28
-1.998640e+01,0.08,0.04,-0.26
-1.998600e+01,0.04,0.1,0.16
-1.998560e+01,0.04,0.04,0.4
-1.998520e+01,1.96,-0.1,-0.32
-1.998480e+01,0.04,0.12,-0.06
-1.998440e+01,0,-0.14,0.32
-1.998400e+01,1.96,-0.14,-0.26
-1.998360e+01,0.08,-0.12,-0.36
-1.998320e+01,0.04,0.1,0.08
-1.998280e+01,1.96,-0.02,0.4
-1.998240e+01,2,-0.06,0.44
-1.998200e+01,0.04,-0.1,0.3
-1.998160e+01,0,0.04,0.36
-1.998120e+01,0.04,-0.14,0.18
-1.998080e+01,0.08,0.1,0.22
-1.998040e+01,0.04,-0.12,0.18
-1.998000e+01,0,0.02,-0.32
-1.997960e+01,0.04,-0.16,-0.14
-1.997920e+01,0,-0.06,0.32
-1.997880e+01,1.96,0.08,0.24
-1.997840e+01,0,0.12,0.32
-1.997800e+01,0.04,0.1,-0.04
-1.997760e+01,0.2,0.1,-0.28
-1.997720e+01,0.04,-0.02,-0.5
-1.997680e+01,1.96,-0.14,-0.22
-1.997640e+01,2,0.04,-0.32
-1.997600e+01,1.96,-0.02,0.32
-1.997560e+01,2,-0.12,-0.02
-1.997520e+01,0.04,-0.16,0.24
-1.997480e+01,2.04,0.02,0.2
-1.997440e+01,0.08,0.04,0.3
-1.997400e+01,0.08,0,0.38
-1.997360e+01,0.04,-0.04,-0.28
-1.997320e+01,2,-0.1,0.26
-1.997280e+01,0.2,-0.14,-0.26
-1.997240e+01,0,0.14,0.28
-1.997200e+01,2.04,0,-0.3
-1.997160e+01,0.04,0.2,0.04
-1.997120e+01,0,-0.14,-0.42
-1.997080e+01,0.04,0.08,-0.24
-1.997040e+01,0,-0.12,-0.08
-1.997000e+01,0.04,0.04,-0.32
-1.996960e+01,2,-0.12,-0.02
-1.996920e+01,2,0.08,-0.12
-1.996880e+01,0.08,0.06,0.48
-1.996840e+01,2,0.08,-0.24
-1.996800e+01,0.04,0.1,-0.18
-1.996760e+01,0,0.02,-0.4
-1.996720e+01,2,-0.08,-0.3
-1.996680e+01,2,-0.04,-0.34
-1.996640e+01,0.04,-0.12,0.08
-1.996600e+01,0.04,0.06,-0.16
-1.996560e+01,2.04,-0.02,0.22
-1.996520e+01,2.04,-0.04,0.24
-1.996480e+01,0.08,-0.14,-0.1
-1.996440e+01,1.96,0.1,-0.06
-1.996400e+01,0.04,0.1,-0.26
-1.996360e+01,0.2,0.04,-0.26
-1.996320e+01,1.96,0.02,-0.32
-1.996280e+01,0.04,-0.02,0.42
-1.996240e+01,0.08,0.12,0.06
-1.996200e+01,2.04,0.06,0.24
-1.996160e+01,0.04,-0.12,-0.24
-1.996120e+01,2,0.06,-0.3
-1.996080e+01,2,-0.16,-0.02
-1.996040e+01,0.04,0.04,0.3
-1.996000e+01,0.04,-0.1,-0.32
-1.995960e+01,0.04,0.16,0.16
-1.995920e+01,0.04,0.1,-0.18
-1.995880e+01,0,-0.14,0.02
-1.995840e+01,1.96,-0.12,-0.16
-1.995800e+01,0.04,-0.14,-0.38
-1.995760e+01,1.96,-0.14,-0.4
-1.995720e+01,0,-0.12,-0.46
-1.995680e+01,0.12,0.08,0.46
-1.995640e+01,0,0.02,-0.32
-1.995600e+01,0.08,0.06,0.16
-1.995560e+01,0.04,0.08,-0.04
-1.995520e+01,1.96,0.1,-0.18
-1.995480e+01,0.04,-0.08,0.26
-1.995440e+01,0.16,0.06,-0.22
-1.995400e+01,1.96,-0.04,0.26
-1.995360e+01,0,0.04,0.32
-1.995320e+01,2,-0.02,-0.3
-1.995280e+01,-0.04,-0.12,0.16
-1.995240e+01,2,0,-0.32
-1.995200e+01,0.04,-0.12,-0.12
-1.995160e+01,2.04,0.04,-0.32
-1.995120e+01,0,0.1,0
-1.995080e+01,1.96,-0.12,0.28
-1.995040e+01,2,0,0.28
-1.995000e+01,0.04,0.1,-0.1
-1.994960e+01,2,-0.08,0.28
-1.994920e+01,0.04,0.16,0.24
-1.994880e+01,2,-0.14,-0.04
-1.994840e+01,1.92,0.08,-0.16
-1.994800e+01,0.04,-0.1,0.32
-1.994760e+01,0.04,-0.1,-0.42
-1.994720e+01,0,-0.04,-0.36
-1.994680e+01,0.04,0.06,0.1
-1.994640e+01,0.76,-0.1,0.28
-1.994600e+01,0.04,-0.1,0.2
-1.994560e+01,0,-0.06,0.3
-1.994520e+01,2,0.04,-0.34
-1.994480e+01,2.04,0.08,-0.1
-1.994440e+01,0,0,-0.3
-1.994400e+01,1.96,-0.1,0.1
-1.994360e+01,0.2,-0.14,-0.08
-1.994320e+01,0.04,-0.08,-0.26
-1.994280e+01,2.04,-0.14,-0.1
-1.994240e+01,2.04,-0.14,0
-1.994200e+01,2,0.02,-0.32
-1.994160e+01,0.04,-0.02,-0.26
-1.994120e+01,2.04,-0.14,-0.3
-1.994080e+01,0.04,-0.14,0.08
-1.994040e+01,0,-0.1,0.22
-1.994000e+01,0.04,0.06,-0.22
-1.993960e+01,0.04,0,-0.36
-1.993920e+01,0.08,-0.06,0.34
-1.993880e+01,1.96,-0.1,0.18
-1.993840e+01,2,-0.08,0.24
-1.993800e+01,0.04,0.04,0.12
-1.993760e+01,0.04,0.1,0.08
-1.993720e+01,2,0.04,0.22
-1.993680e+01,2,-0.1,-0.2
-1.993640e+01,2,-0.08,-0.24
-1.993600e+01,0.04,-0.06,0.22
-1.993560e+01,0.04,0.04,0.14
-1.993520e+01,1.96,0.02,-0.3
-1.993480e+01,1.96,0.12,0.14
-1.993440e+01,0.04,-0.14,-0.14
-1.993400e+01,0.72,0.08,0.18
-1.993360e+01,0.04,0.1,-0.04
-1.993320e+01,1.96,0.02,0.16
-1.993280e+01,1.96,0,0.2
-1.993240e+01,0.04,0.04,0.22
-1.993200e+01,1.96,0.08,-0.16
-1.993160e+01,1.96,-0.14,-0.08
-1.993120e+01,0.08,0.06,-0.2
-1.993080e+01,0.04,-0.18,0
-1.993040e+01,0,-0.04,0.36
-1.993000e+01,2.04,-0.04,-0.3
-1.992960e+01,2,0.08,0.04
-1.992920e+01,2.04,0.1,-0.1
-1.992880e+01,0,0.1,-0.08
-1.992840e+01,2.04,-0.12,0.06
-1.992800e+01,2,-0.04,-0.28
-1.992760e+01,0,-0.1,-0.18
-1.992720e+01,1.6,-0.08,-0.28
-1.992680e+01,0.04,-0.04,0.28
-1.992640e+01,2,-0.02,-0.36
-1.992600e+01,2,-0.06,-0.28
-1.992560e+01,0.04,0.08,-0.08
-1.992520e+01,0,0.1,-0.16
-1.992480e+01,1.96,-0.1,-0.16
-1.992440e+01,0,0.08,-0.08
-1.992400e+01,0.04,-0.08,0.3
-1.992360e+01,2,-0.12,0.2
-1.992320e+01,0.04,0.04,0.26
-1.992280e+01,0.04,-0.12,-0.16
-1.992240e+01,0.04,-0.14,-0.08
-1.992200e+01,0.04,0.02,-0.28
-1.992160e+01,0.04,-0.12,-0.18
-1.992120e+01,0,-0.06,0.22
-1.992080e+01,2,-0.08,-0.2
-1.992040e+01,2,0.08,0
-1.992000e+01,2,-0.04,-0.32
-1.991960e+01,2,0.04,0.3
-1.991920e+01,1.24,0.02,0.2
-1.991880e+01,0.04,0.04,0.16
-1.991840e+01,0.04,0.04,-0.3
-1.991800e+01,0.12,0,0.2
-1.991760e+01,1.96,-0.12,-0.2
-1.991720e+01,0.12,-0.1,0.14
-1.991680e+01,1.96,-0.12,0.2
-1.991640e+01,0.04,-0.08,-0.42
-1.991600e+01,2,-0.1,0.26
-1.991560e+01,0.04,0.12,-0.22
-1.991520e+01,0,-0.16,0.04
-1.991480e+01,0.04,-0.08,-0.24
-1.991440e+01,0.04,0.02,-0.3
-1.991400e+01,2.04,0.02,0.2
-1.991360e+01,0.04,-0.04,-0.34
-1.991320e+01,0.04,-0.14,0
-1.991280e+01,0.04,0.02,-0.36
-1.991240e+01,2.04,-0.12,0.16
-1.991200e+01,0,0.08,0.02
-1.991160e+01,2,-0.1,0.16
-1.991120e+01,2,-0.14,0.04
-1.991080e+01,0.04,0.04,0.22
-1.991040e+01,1.6,0.04,-0.28
-1.991000e+01,0.04,-0.12,-0.04
-1.990960e+01,2.04,0.08,-0.14
-1.990920e+01,0.12,-0.04,0.28
-1.990880e+01,1.96,-0.14,-0.1
-1.990840e+01,0.08,0.1,-0.1
-1.990800e+01,0.8,-0.08,-0.44
-1.990760e+01,2,0.06,0.26
-1.990720e+01,2,0.06,-0.26
-1.990680e+01,2.04,0.06,-0.22
-1.990640e+01,0.4,0.02,0.24
-1.990600e+01,2,-0.12,0.08
-1.990560e+01,0.04,-0.04,-0.4
-1.990520e+01,2.04,-0.12,0.1
-1.990480e+01,2.04,0.04,-0.3
-1.990440e+01,0.04,-0.1,0.16
-1.990400e+01,0.04,0.12,-0.02
-1.990360e+01,0.04,0.08,-0.04
-1.990320e+01,0.12,0.02,0.34
-1.990280e+01,0.68,0.12,-0.2
-1.990240e+01,0.04,-0.08,-0.24
-1.990200e+01,0.04,0,-0.26
-1.990160e+01,0.04,0.06,0.1
-1.990120e+01,1.96,0.04,-0.3
-1.990080e+01,0.04,-0.14,-0.16
-1.990040e+01,1.96,0.06,0.02
-1.990000e+01,0.04,-0.08,0.26
-1.989960e+01,2,0.06,0.24
-1.989920e+01,2,0.08,0.1
-1.989880e+01,0.04,-0.08,-0.22
-1.989840e+01,0,-0.14,0.02
-1.989800e+01,2,-0.06,0.24
-1.989760e+01,0.16,0.08,0.34
-1.989720e+01,0.04,-0.14,-0.16
-1.989680e+01,0,0.08,0.1
-1.989640e+01,0.04,-0.02,-0.4
-1.989600e+01,2,0.04,-0.36
-1.989560e+01,2,-0.1,0.14
-1.989520e+01,0,-0.1,0.28
-1.989480e+01,0.04,0.08,-0.14
-1.989440e+01,0.04,0.14,0.28
-1.989400e+01,0.04,0.04,0.14
-1.989360e+01,0.04,0.02,0.3
-1.989320e+01,0.04,0.06,-0.3
-1.989280e+01,0.04,0.06,-0.2
-1.989240e+01,2,0.04,-0.26
-1.989200e+01,0.04,-0.14,-0.04
-1.989160e+01,2,0,0.24
-1.989120e+01,0.04,-0.08,0.26
-1.989080e+01,0.04,0.1,0.02
-1.989040e+01,0.04,0.04,-0.3
-1.989000e+01,0.04,0.06,0.22
-1.988960e+01,0.04,-0.08,-0.38
-1.988920e+01,2,-0.08,0.22
-1.988880e+01,0.04,0.06,-0.4
-1.988840e+01,0.04,0.08,-0.02
-1.988800e+01,0.04,-0.1,-0.3
-1.988760e+01,0.04,0.04,-0.38
-1.988720e+01,2,0.04,0.26
-1.988680e+01,0.04,0.08,-0.22
-1.988640e+01,0.08,-0.04,-0.4
-1.988600e+01,0.04,-0.06,0.32
-1.988560e+01,0.12,-0.14,-0.04
-1.988520e+01,2.04,-0.12,0.14
-1.988480e+01,2.04,-0.14,0.14
-1.988440e+01,0.12,-0.16,-0.08
-1.988400e+01,0.04,-0.1,-0.24
-1.988360e+01,0.08,0.04,-0.3
-1.988320e+01,0.04,-0.1,0.2
-1.988280e+01,0.04,0,0.3
-1.988240e+01,0,-0.1,-0.26
-1.988200e+01,0,-0.02,-0.38
-1.988160e+01,2,-0.1,0.2
-1.988120e+01,0.08,-0.08,-0.3
-1.988080e+01,1.96,0.04,-0.34
-1.988040e+01,0,0.02,0.3
-1.988000e+01,1.96,0.02,-0.5
-1.987960e+01,0.08,-0.02,-0.36
-1.987920e+01,0.32,0.02,-0.36
-1.987880e+01,2,-0.02,-0.4
-1.987840e+01,0,-0.02,-0.36
-1.987800e+01,0.08,-0.12,-0.46
-1.987760e+01,2,0.04,0.24
-1.987720e+01,0.08,-0.16,0.1
-1.987680e+01,0.04,-0.04,0.38
-1.987640e+01,2,0.04,0.18
-1.987600e+01,0.4,-0.1,0.16
-1.987560e+01,2,-0.12,0.22
-1.987520e+01,0.04,-0.06,-0.36
-1.987480e+01,2.08,-0.14,-0.12
-1.987440e+01,0.04,-0.12,0.18
-1.987400e+01,1.96,-0.02,-0.34
-1.987360e+01,2,0.02,-0.36
-1.987320e+01,0.04,0.06,-0.3
-1.987280e+01,2,-0.1,-0.26
-1.987240e+01,1.96,0.08,-0.24
-1.987200e+01,0.12,-0.1,-0.36
-1.987160e+01,0.12,0.12,-0.08
-1.987120e+01,0.12,-0.16,-0.24
-1.987080e+01,2,-0.04,0.4
-1.987040e+01,0.04,-0.12,-0.06
-1.987000e+01,1.96,-0.02,-0.44
-1.986960e+01,0.04,0.02,-0.4
-1.986920e+01,1.96,-0.08,-0.26
-1.986880e+01,0.04,0.02,0.3
-1.986840e+01,0.08,0.1,-0.1
-1.986800e+01,0.04,-0.14,0.02
-1.986760e+01,0.08,0.08,0.02
-1.986720e+01,0.04,-0.14,-0.26
-1.986680e+01,2,-0.12,0.2
-1.986640e+01,2,0,0.24
-1.986600e+01,1.96,-0.1,0.18
-1.986560e+01,0.08,-0.1,-0.14
-1.986520e+01,2,-0.02,0.32
-1.986480e+01,2,0.1,-0.2
-1.986440e+01,0.04,0.06,0.06
-1.986400e+01,2,-0.14,0.22
-1.986360e+01,0.04,0.04,-0.34
-1.986320e+01,2,-0.14,0.06
-1.986280e+01,2.04,0.06,0.1
-1.986240e+01,0.08,0.08,0.02
-1.986200e+01,0.04,0.04,0.12
-1.986160e+01,1.56,-0.1,-0.1
-1.986120e+01,1.64,-0.02,-0.42
-1.986080e+01,0,-0.08,-0.32
-1.986040e+01,0.08,0.1,-0.16
-1.986000e+01,1.96,-0.08,0.3
-1.985960e+01,1.96,-0.12,-0.44
-1.985920e+01,2,0.04,-0.34
-1.985880e+01,2.04,0.06,0.1
-1.985840e+01,0.04,-0.14,0.02
-1.985800e+01,2,0.06,0.22
-1.985760e+01,2,-0.1,-0.22
-1.985720e+01,2.04,-0.06,-0.3
-1.985680e+01,0.08,0.06,0.1
-1.985640e+01,0.36,0.1,0.16
-1.985600e+01,1.12,-0.06,0.3
-1.985560e+01,0.04,0.04,0.22
-1.985520e+01,0.04,0.12,-0.12
-1.985480e+01,0.08,-0.1,-0.36
-1.985440e+01,0.08,0.06,-0.28
-1.985400e+01,2,-0.02,-0.34
-1.985360e+01,0.04,-0.04,0.3
-1.985320e+01,0.08,-0.08,0.26
-1.985280e+01,2,0.06,0.14
-1.985240e+01,0.04,-0.14,-0.1
-1.985200e+01,2,-0.16,-0.06
-1.985160e+01,2,0.1,-0.12
-1.985120e+01,0.08,-0.12,-0.02
-1.985080e+01,2,0.06,0.28
-1.985040e+01,0.04,0.08,0.1
-1.985000e+01,2,0,0.22
-1.984960e+01,0,-0.14,0.04
-1.984920e+01,0.04,0.1,0.14
-1.984880e+01,2,0.1,-0.06
-1.984840e+01,0.04,-0.08,-0.24
-1.984800e+01,0.08,0.06,-0.22
-1.984760e+01,0.04,0.08,-0.08
-1.984720e+01,0.04,-0.1,-0.16
-1.984680e+01,2,0.08,-0.16
-1.984640e+01,0.36,-0.02,0.26
-1.984600e+01,0.08,-0.06,-0.24
-1.984560e+01,1.96,0.12,-0.14
-1.984520e+01,1.96,-0.14,0.06
-1.984480e+01,0.04,-0.08,0.28
-1.984440e+01,0.12,0.04,-0.3
-1.984400e+01,2.04,0.04,-0.3
-1.984360e+01,0,-0.14,0.16
-1.984320e+01,0.04,0.12,-0.2
-1.984280e+01,2.04,-0.04,0.3
-1.984240e+01,0.16,0.06,0.22
-1.984200e+01,0.04,0.06,0.12
-1.984160e+01,0.04,-0.08,0.26
-1.984120e+01,0.12,-0.16,0.14
-1.984080e+01,0.04,-0.04,-0.3
-1.984040e+01,0.12,0,0.3
-1.984000e+01,0,0.02,-0.32
-1.983960e+01,0.04,0,-0.3
-1.983920e+01,0.04,-0.06,0.26
-1.983880e+01,2,-0.08,-0.26
-1.983840e+01,0.04,0,-0.36
-1.983800e+01,2,-0.04,0.3
-1.983760e+01,0.04,0,-0.3
-1.983720e+01,0,0.08,-0.16
-1.983680e+01,0.08,-0.14,0.04
-1.983640e+01,0.04,0.04,0.24
-1.983600e+01,0.76,-0.14,0.12
-1.983560e+01,2,-0.08,0.26
-1.983520e+01,0,-0.02,0.28
-1.983480e+01,1.88,0.04,-0.32
-1.983440e+01,2,0.06,-0.3
-1.983400e+01,2,0.06,-0.22
-1.983360e+01,0.04,0.02,-0.4
-1.983320e+01,2.04,0.02,-0.32
-1.983280e+01,2,-0.14,0.08
-1.983240e+01,0.08,-0.16,-0.08
-1.983200e+01,0.16,0,0.22
-1.983160e+01,2,-0.12,0.08
-1.983120e+01,0.08,-0.1,-0.16
-1.983080e+01,-0.04,0.06,0.06
-1.983040e+01,1.96,0.08,-0.16
-1.983000e+01,1.96,0.06,-0.14
-1.982960e+01,0.04,-0.02,0.26
-1.982920e+01,2,-0.08,-0.26
-1.982880e+01,0.04,0.02,0.2
-1.982840e+01,0.04,-0.04,-0.3
-1.982800e+01,1.96,0.06,-0.18
-1.982760e+01,0.04,-0.08,0.22
-1.982720e+01,0.04,-0.1,-0.24
-1.982680e+01,0.04,-0.08,0.32
-1.982640e+01,0.08,0.08,0.06
-1.982600e+01,0.04,-0.08,0.26
-1.982560e+01,1.96,0.08,-0.06
-1.982520e+01,2.04,-0.14,0.1
-1.982480e+01,1.96,-0.06,0.24
-1.982440e+01,0,-0.14,-0.02
-1.982400e+01,0,-0.1,-0.3
-1.982360e+01,2.04,-0.02,0.2
-1.982320e+01,0.04,0.02,0.22
-1.982280e+01,0.04,0,0.26
-1.982240e+01,0.04,-0.06,0.38
-1.982200e+01,2,-0.06,0.3
-1.982160e+01,0.08,0.08,0.02
-1.982120e+01,2.04,-0.02,0.26
-1.982080e+01,1.6,-0.08,0.24
-1.982040e+01,2.04,0.06,-0.24
-1.982000e+01,0.04,0.06,0.1
-1.981960e+01,0.04,-0.1,0.24
-1.981920e+01,1.96,-0.14,0.04
-1.981880e+01,2,-0.12,0.22
-1.981840e+01,0,0.04,-0.3
-1.981800e+01,0.04,-0.14,-0.04
-1.981760e+01,2,0.08,0.1
-1.981720e+01,0,-0.14,0.16
-1.981680e+01,2.04,0,-0.32
-1.981640e+01,2,-0.14,0.14
-1.981600e+01,2,-0.04,0.26
-1.981560e+01,0.04,0.08,-0.04
-1.981520e+01,0,0.04,0.06
-1.981480e+01,0.08,0.1,-0.14
-1.981440e+01,1.96,0.06,0
-1.981400e+01,0.04,0,0.16
-1.981360e+01,2,0.04,0.16
-1.981320e+01,2,-0.14,-0.06
-1.981280e+01,0.04,0.08,-0.22
-1.981240e+01,0,-0.02,0.2
-1.981200e+01,0,0,-0.34
-1.981160e+01,0.68,0,0.24
-1.981120e+01,0.04,0.08,-0.1
-1.981080e+01,1.96,0,-0.32
-1.981040e+01,1.96,0.04,0.16
-1.981000e+01,0,-0.12,-0.12
-1.980960e+01,2.08,0.06,-0.24
-1.980920e+01,0.04,-0.14,-0.14
-1.980880e+01,0,0,0.24
-1.980840e+01,0.04,-0.04,-0.28
-1.980800e+01,0.04,-0.04,0.24
-1.980760e+01,0.12,0.02,-0.32
-1.980720e+01,0.08,0,0.14
-1.980680e+01,0.04,0.06,0.06
-1.980640e+01,2.04,0.06,-0.26
-1.980600e+01,0.04,-0.08,-0.2
-1.980560e+01,2.04,-0.1,-0.18
-1.980520e+01,2,-0.14,0.06
-1.980480e+01,0.28,0.04,-0.3
-1.980440e+01,0.08,-0.12,0
-1.980400e+01,0.04,0.06,-0.08
-1.980360e+01,0.04,-0.12,-0.02
-1.980320e+01,0.04,-0.04,-0.22
-1.980280e+01,1.92,0.02,-0.3
-1.980240e+01,0,0.04,0.14
-1.980200e+01,0.04,-0.14,0
-1.980160e+01,0.04,-0.14,-0.06
-1.980120e+01,0.04,-0.02,0.22
-1.980080e+01,0.08,-0.06,0.24
-1.980040e+01,2.04,-0.1,-0.16
-1.980000e+01,0.16,0.06,-0.14
-1.979960e+01,0.04,-0.12,0
-1.979920e+01,0.04,-0.14,-0.12
-1.979880e+01,0.04,-0.02,0.18
-1.979840e+01,0.04,-0.14,0.12
-1.979800e+01,0.08,-0.06,0.26
-1.979760e+01,0.04,0.06,-0.24
-1.979720e+01,2,-0.06,-0.24
-1.979680e+01,-0.04,-0.08,0.22
-1.979640e+01,0.04,0.1,-0.1
-1.979600e+01,1.96,-0.14,-0.02
-1.979560e+01,0.04,0.08,-0.14
-1.979520e+01,0,-0.04,-0.26
-1.979480e+01,0,0.08,-0.12
-1.979440e+01,0.08,-0.1,-0.18
-1.979400e+01,0.08,0.06,-0.24
-1.979360e+01,0.04,-0.14,0.06
-1.979320e+01,0.12,-0.04,0.24
-1.979280e+01,0.04,0,-0.26
-1.979240e+01,0.04,0.04,-0.22
-1.979200e+01,0,-0.04,-0.26
-1.979160e+01,1.96,0.02,-0.26
-1.979120e+01,0.04,-0.08,-0.24
-1.979080e+01,2.08,-0.02,-0.24
-1.979040e+01,0.08,-0.02,-0.26
-1.979000e+01,2,0.06,-0.24
-1.978960e+01,0.04,-0.12,0.16
-1.978920e+01,0,0,0.2
-1.978880e+01,0.04,-0.12,-0.06
-1.978840e+01,0.04,0.02,0.18
-1.978800e+01,0.04,0.06,0.1
-1.978760e+01,0.04,-0.14,-0.1
-1.978720e+01,0.12,-0.12,-0.14
-1.978680e+01,0.04,0.06,-0.2
-1.978640e+01,0.04,-0.14,0.08
-1.978600e+01,0.04,-0.08,0.24
-1.978560e+01,0.04,-0.08,-0.2
-1.978520e+01,0.08,0.02,-0.26
-1.978480e+01,0,0.04,0.12
-1.978440e+01,0,0.04,-0.16
-1.978400e+01,0.04,-0.14,0.1
-1.978360e+01,2,-0.12,-0.14
-1.978320e+01,0.04,0.04,-0.22
-1.978280e+01,0.04,-0.06,-0.26
-1.978240e+01,0.04,0.04,0.14
-1.978200e+01,0.04,-0.12,0.18
-1.978160e+01,0.28,-0.1,0.1
-1.978120e+01,0.04,0,0.22
-1.978080e+01,2,-0.08,-0.18
-1.978040e+01,1.96,-0.04,0.22
-1.978000e+01,0.04,-0.1,0.2
-1.977960e+01,0.04,-0.14,0.14
-1.977920e+01,0.04,0.06,-0.18
-1.977880e+01,0.04,0,-0.22
-1.977840e+01,0.04,0.08,-0.06
-1.977800e+01,0,0.02,0.16
-1.977760e+01,-0.04,-0.04,-0.2
-1.977720e+01,0.04,0.04,0.08
-1.977680e+01,0.08,-0.1,0.16
-1.977640e+01,0.04,-0.08,-0.12
-1.977600e+01,0.04,0.04,-0.24
-1.977560e+01,2,-0.04,0.22
-1.977520e+01,0.04,-0.04,0.22
-1.977480e+01,0.04,0.06,0.1
-1.977440e+01,0,0.02,0.18
-1.977400e+01,2,-0.14,-0.08
-1.977360e+01,2,-0.1,-0.02
-1.977320e+01,0.04,0.06,-0.1
-1.977280e+01,1.96,-0.02,-0.22
-1.977240e+01,2,-0.02,-0.24
-1.977200e+01,0.04,-0.1,0.12
-1.977160e+01,0,0.04,-0.2
-1.977120e+01,0.04,-0.02,0.2
-1.977080e+01,0.04,-0.06,0.22
-1.977040e+01,0.04,0.04,0.06
-1.977000e+01,0,-0.06,0.18
-1.976960e+01,2,-0.04,-0.22
-1.976920e+01,0,0.04,-0.24
-1.976880e+01,0.04,0.08,-0.02
-1.976840e+01,2,0.04,-0.08
-1.976800e+01,2,0.06,-0.02
-1.976760e+01,0.04,-0.1,0.02
-1.976720e+01,0.04,0.06,-0.1
-1.976680e+01,2,-0.1,-0.02
-1.976640e+01,2,-0.1,0.02
-1.976600e+01,0,0.06,-0.04
-1.976560e+01,2,-0.06,-0.12
-1.976520e+01,0,0,-0.22
-1.976480e+01,0.04,-0.1,0.18
-1.976440e+01,1.6,-0.12,-0.06
-1.976400e+01,0.32,0.1,-0.04
-1.976360e+01,2,-0.06,0.16
-1.976320e+01,0.04,-0.06,-0.18
-1.976280e+01,0.04,-0.06,-0.12
-1.976240e+01,1.96,0.04,-0.04
-1.976200e+01,2.04,-0.12,-0.02
-1.976160e+01,2,-0.04,-0.18
-1.976120e+01,1.96,0.06,-0.06
-1.976080e+01,2,-0.1,0.02
-1.976040e+01,0.08,0.06,-0.06
-1.976000e+01,2.04,-0.1,0.2
-1.975960e+01,1.96,0.08,0
-1.975920e+01,2.04,0.06,-0.12
-1.975880e+01,2,0.04,-0.18
-1.975840e+01,2,0.04,0.1
-1.975800e+01,1.96,0.02,0.12
-1.975760e+01,0,0.02,0.08
-1.975720e+01,0.04,0.06,-0.14
-1.975680e+01,0.04,-0.02,0.16
-1.975640e+01,0.08,0.06,0
-1.975600e+01,2,0,-0.18
-1.975560e+01,0.04,-0.02,-0.2
-1.975520e+01,2,0.02,-0.22
-1.975480e+01,2,-0.1,0.14
-1.975440e+01,0.04,0,-0.18
-1.975400e+01,0.04,0.04,0.02
-1.975360e+01,0.08,-0.08,0.18
-1.975320e+01,0.08,0.06,0.06
-1.975280e+01,2,-0.1,0
-1.975240e+01,0,-0.04,0.2
-1.975200e+01,0.04,-0.02,-0.2
-1.975160e+01,0.08,0.02,-0.18
-1.975120e+01,2,-0.08,0.16
-1.975080e+01,0.04,-0.08,0.2
-1.975040e+01,1.96,0,0.18
-1.975000e+01,2,0.06,-0.1
-1.974960e+01,0,-0.06,-0.12
-1.974920e+01,0.04,0.04,-0.12
-1.974880e+01,0,-0.06,-0.14
-1.974840e+01,2,-0.06,0.16
-1.974800e+01,1.6,-0.02,-0.2
-1.974760e+01,2,0.04,-0.16
-1.974720e+01,0.28,0,0.12
-1.974680e+01,0.04,0.04,-0.1
-1.974640e+01,0.08,-0.08,0.16
-1.974600e+01,0.08,0.06,-0.04
-1.974560e+01,2,0.04,0.06
-1.974520e+01,0.04,-0.1,0.06
-1.974480e+01,0.04,-0.08,-0.14
-1.974440e+01,0.08,-0.02,-0.2
-1.974400e+01,0,-0.04,-0.18
-1.974360e+01,2,0.06,-0.04
-1.974320e+01,1.96,-0.02,-0.2
-1.974280e+01,0,0.02,-0.22
-1.974240e+01,2,-0.14,0.08
-1.974200e+01,0,-0.1,0.08
-1.974160e+01,2,-0.04,0.24
-1.974120e+01,0,0.08,-0.1
-1.974080e+01,0.04,0.04,-0.2
-1.974040e+01,2,0,0.12
-1.974000e+01,0.04,-0.1,0.16
-1.973960e+01,0.12,-0.04,-0.22
-1.973920e+01,2,-0.12,0
-1.973880e+01,0.04,-0.02,0.2
-1.973840e+01,1.96,-0.1,0.04
-1.973800e+01,1.96,0.04,0.14
-1.973760e+01,0.04,0,0.22
-1.973720e+01,0.04,-0.02,-0.22
-1.973680e+01,0.04,-0.02,-0.18
-1.973640e+01,2,-0.12,0.14
-1.973600e+01,1.96,-0.1,0
-1.973560e+01,2,0.04,-0.1
-1.973520e+01,2.04,0.04,-0.2
-1.973480e+01,0,0.06,-0.06
-1.973440e+01,0.08,-0.1,-0.06
-1.973400e+01,0.04,0.06,-0.06
-1.973360e+01,0,0.06,-0.1
-1.973320e+01,0,-0.1,0.08
-1.973280e+01,0.04,0.02,-0.18
-1.973240e+01,0.04,-0.04,-0.18
-1.973200e+01,0,-0.1,-0.14
-1.973160e+01,2,-0.06,0.24
-1.973120e+01,1.96,-0.06,0.22
-1.973080e+01,2,0.06,-0.1
-1.973040e+01,2,-0.08,0.22
-1.973000e+01,0.12,-0.1,0.2
-1.972960e+01,1.96,0.02,-0.18
-1.972920e+01,0.04,-0.1,0.14
-1.972880e+01,2.04,-0.1,0.22
-1.972840e+01,2,0.04,-0.04
-1.972800e+01,2.04,-0.06,0.22
-1.972760e+01,0.56,0.06,0.04
-1.972720e+01,2,0.04,-0.04
-1.972680e+01,1.96,-0.02,0.22
-1.972640e+01,2,0.02,-0.2
-1.972600e+01,0,-0.1,0.22
-1.972560e+01,2.04,-0.14,0.14
-1.972520e+01,0.04,-0.12,0
